{
    "KPlugin": {
        "Authors": [
            {
                "Email": "aleixpol@kde.org",
                "Name": "Aleix Pol",
                "Name[ar]": "ألكس بول",
                "Name[az]": "Aleix Pol",
                "Name[bg]": "Aleix Pol",
                "Name[ca@valencia]": "Aleix Pol",
                "Name[ca]": "Aleix Pol",
                "Name[cs]": "Aleix Pol",
                "Name[da]": "Aleix Pol",
                "Name[de]": "Aleix Pol",
                "Name[el]": "Aleix Pol",
                "Name[en_GB]": "Aleix Pol",
                "Name[es]": "Aleix Pol",
                "Name[et]": "Aleix Pol",
                "Name[eu]": "Aleix Pol",
                "Name[fi]": "Aleix Pol",
                "Name[fr]": "Aleix Pol",
                "Name[gl]": "Aleix Pol",
                "Name[hu]": "Aleix Pol",
                "Name[ia]": "Aleix Pol",
                "Name[id]": "Aleix Pol",
                "Name[ie]": "Aleix Pol",
                "Name[is]": "Aleix Pol",
                "Name[it]": "Aleix Pol",
                "Name[ka]": "Aleix Pol",
                "Name[ko]": "Aleix Pol",
                "Name[lt]": "Aleix Pol",
                "Name[nl]": "Aleix Pol",
                "Name[nn]": "Aleix Pol",
                "Name[pl]": "Aleix Pol",
                "Name[pt]": "Aleix Pol",
                "Name[pt_BR]": "Aleix Pol",
                "Name[ro]": "Aleix Pol",
                "Name[ru]": "Aleix Pol",
                "Name[sk]": "Aleix Pol",
                "Name[sl]": "Aleix Pol",
                "Name[sr@ijekavian]": "Алекс Пол Гонзалез",
                "Name[sr@ijekavianlatin]": "Aleks Pol Gonzalez",
                "Name[sr@latin]": "Aleks Pol Gonzalez",
                "Name[sr]": "Алекс Пол Гонзалез",
                "Name[sv]": "Aleix Pol",
                "Name[tr]": "Aleix Pol",
                "Name[uk]": "Aleix Pol",
                "Name[x-test]": "xxAleix Polxx",
                "Name[zh_CN]": "Aleix Pol",
                "Name[zh_TW]": "Aleix Pol"
            }
        ],
        "Description": "Locks your systems",
        "Description[ar]": "أوصد الأنظمة",
        "Description[az]": "Sistemlərinizi kilidləyin",
        "Description[bg]": "Заключване на системите",
        "Description[ca@valencia]": "Bloqueja els vostres sistemes",
        "Description[ca]": "Bloqueja els vostres sistemes",
        "Description[cs]": "Zamkne vaše systémy",
        "Description[da]": "Låser dine systemer",
        "Description[de]": "Sperrt Ihre Systeme",
        "Description[el]": "Κλειδώνει τα συστήματά σας",
        "Description[en_GB]": "Locks your systems",
        "Description[es]": "Bloquear sus sistemas",
        "Description[et]": "Oma süsteemide lukustamine",
        "Description[eu]": "Zure sistemak blokeatzen ditu",
        "Description[fi]": "Lukitsee järjestelmäsi",
        "Description[fr]": "Bloque votre système",
        "Description[gl]": "Bloquea os seus sistemas",
        "Description[hu]": "Rendszer zárolása",
        "Description[ia]": "Bloca tu systemas",
        "Description[id]": "Mengunci sistem Anda",
        "Description[is]": "Læsir kerfunum þínum",
        "Description[it]": "Blocca i tuoi sistemi",
        "Description[ka]": "თქვენი სისტემის დაბლოკვა",
        "Description[ko]": "내 시스템 잠그기",
        "Description[lt]": "Užrakina jūsų sistemą",
        "Description[nl]": "Vergrendeld uw systemen",
        "Description[nn]": "Lås systemet",
        "Description[pl]": "Blokuje twoje urządzenia",
        "Description[pt]": "Bloqueia os seus sistemas",
        "Description[pt_BR]": "Bloqueia seus sistemas",
        "Description[ro]": "Vă blochează sistemele",
        "Description[ru]": "Блокировка систем",
        "Description[sk]": "Uzamknutie vašich systémov",
        "Description[sl]": "Zakleni vaše sisteme",
        "Description[sr@ijekavian]": "Закључава ваш систем",
        "Description[sr@ijekavianlatin]": "Zaključava vaš sistem",
        "Description[sr@latin]": "Zaključava vaš sistem",
        "Description[sr]": "Закључава ваш систем",
        "Description[sv]": "Låser dina system",
        "Description[tr]": "Sistemlerinizi kilitler",
        "Description[uk]": "Блокує вашу систему",
        "Description[x-test]": "xxLocks your systemsxx",
        "Description[zh_CN]": "锁定您的系统",
        "Description[zh_TW]": "鎖定您的系統",
        "EnabledByDefault": true,
        "Icon": "lock",
        "License": "GPL",
        "Name": "LockDevice",
        "Name[ar]": "أوصد الجهاز",
        "Name[az]": "Cihazı kilidləmək",
        "Name[bg]": "Заключване на устройството",
        "Name[ca@valencia]": "Bloqueja el dispositiu",
        "Name[ca]": "Bloqueja el dispositiu",
        "Name[cs]": "Uzamknout zařízení",
        "Name[da]": "LåsEnhed",
        "Name[de]": "Gerätesperrung",
        "Name[el]": "LockDevice",
        "Name[en_GB]": "LockDevice",
        "Name[es]": "Bloquear dispositivo",
        "Name[et]": "Seadme lukustamine",
        "Name[eu]": "BlokeatuGailua",
        "Name[fi]": "Lukitse laite",
        "Name[fr]": "Verrouiller un périphérique",
        "Name[gl]": "Bloqueo do dispositivo",
        "Name[hu]": "Eszközzárolás",
        "Name[ia]": "Bloca Dispositivo",
        "Name[id]": "Kunci Peranti",
        "Name[is]": "LockDevice",
        "Name[it]": "Blocco dispositivo",
        "Name[ka]": "მოწყობილობის დაბლოკვა",
        "Name[ko]": "장치 잠금",
        "Name[lt]": "Užrakinti įrenginį",
        "Name[nl]": "Apparaat vergrendelen",
        "Name[nn]": "Lås eining",
        "Name[pl]": "Blokowanie urządzenia",
        "Name[pt]": "Bloqueio de Dispositivo",
        "Name[pt_BR]": "Bloqueio de dispositivo",
        "Name[ro]": "BlocareDispozitiv",
        "Name[ru]": "Блокировка устройства",
        "Name[sk]": "Uzamknúť zariadenie",
        "Name[sl]": "Zakleni napravo",
        "Name[sr@ijekavian]": "Катанац",
        "Name[sr@ijekavianlatin]": "Katanac",
        "Name[sr@latin]": "Katanac",
        "Name[sr]": "Катанац",
        "Name[sv]": "Lås enhet",
        "Name[tr]": "AygıtıKilitle",
        "Name[uk]": "LockDevice",
        "Name[x-test]": "xxLockDevicexx",
        "Name[zh_CN]": "锁定设备",
        "Name[zh_TW]": "鎖定裝置"
    },
    "X-KdeConnect-OutgoingPacketType": [
        "kdeconnect.lock.request",
        "kdeconnect.lock"
    ],
    "X-KdeConnect-SupportedPacketType": [
        "kdeconnect.lock.request",
        "kdeconnect.lock"
    ]
}
