{
    "KPlugin": {
        "Authors": [
            {
                "Email": "aleixpol@kde.org",
                "Name": "Aleix Pol",
                "Name[ar]": "ألكس بول",
                "Name[az]": "Aleix Pol",
                "Name[bg]": "Aleix Pol",
                "Name[ca@valencia]": "Aleix Pol",
                "Name[ca]": "Aleix Pol",
                "Name[cs]": "Aleix Pol",
                "Name[da]": "Aleix Pol",
                "Name[de]": "Aleix Pol",
                "Name[el]": "Aleix Pol",
                "Name[en_GB]": "Aleix Pol",
                "Name[es]": "Aleix Pol",
                "Name[et]": "Aleix Pol",
                "Name[eu]": "Aleix Pol",
                "Name[fi]": "Aleix Pol",
                "Name[fr]": "Aleix Pol",
                "Name[gl]": "Aleix Pol",
                "Name[hu]": "Aleix Pol",
                "Name[ia]": "Aleix Pol",
                "Name[id]": "Aleix Pol",
                "Name[ie]": "Aleix Pol",
                "Name[is]": "Aleix Pol",
                "Name[it]": "Aleix Pol",
                "Name[ka]": "Aleix Pol",
                "Name[ko]": "Aleix Pol",
                "Name[lt]": "Aleix Pol",
                "Name[nl]": "Aleix Pol",
                "Name[nn]": "Aleix Pol",
                "Name[pl]": "Aleix Pol",
                "Name[pt]": "Aleix Pol",
                "Name[pt_BR]": "Aleix Pol",
                "Name[ro]": "Aleix Pol",
                "Name[ru]": "Aleix Pol",
                "Name[sk]": "Aleix Pol",
                "Name[sl]": "Aleix Pol",
                "Name[sr@ijekavian]": "Алекс Пол Гонзалез",
                "Name[sr@ijekavianlatin]": "Aleks Pol Gonzalez",
                "Name[sr@latin]": "Aleks Pol Gonzalez",
                "Name[sr]": "Алекс Пол Гонзалез",
                "Name[sv]": "Aleix Pol",
                "Name[tr]": "Aleix Pol",
                "Name[uk]": "Aleix Pol",
                "Name[x-test]": "xxAleix Polxx",
                "Name[zh_CN]": "Aleix Pol",
                "Name[zh_TW]": "Aleix Pol"
            }
        ],
        "Description": "Control MPRIS services",
        "Description[ar]": "تحكّم بخدمات MPRIS",
        "Description[az]": "MPRİS xidmətlərinin idarə edilməsi",
        "Description[bg]": "Контрол на услуги MPRIS",
        "Description[ca@valencia]": "Serveis de control del MPRIS",
        "Description[ca]": "Serveis de control del MPRIS",
        "Description[cs]": "Ovládejte služby MPRIS",
        "Description[da]": "Kontrollér MPRIS-tjenester",
        "Description[de]": "Steuerung von MPRIS-Diensten",
        "Description[el]": "Έλεγχος υπηρεσιών MPRIS",
        "Description[en_GB]": "Control MPRIS services",
        "Description[es]": "Controlar los servicios MPRIS",
        "Description[et]": "MPRIS-teenuste juhtimine",
        "Description[eu]": "Kontrolatu MPRIS zerbitzuak",
        "Description[fi]": "Ohjaa MPRIS-palveluita",
        "Description[fr]": "Contrôlez les services MPRIS",
        "Description[gl]": "Controle servizos de MPRIS",
        "Description[hu]": "MPRIS szolgáltatások irányítása",
        "Description[ia]": "Controla servicios de MPRIS",
        "Description[id]": "Kontrol layanan MPRIS",
        "Description[is]": "Stýra MPRIS-þjónustum",
        "Description[it]": "Servizi di controllo MPRIS",
        "Description[ka]": "MPRIS სერვისების კონტროლი",
        "Description[ko]": "MPRIS 서비스 제어",
        "Description[lt]": "Valdyti MPRIS paslaugas",
        "Description[nl]": "MPRIS-services besturen",
        "Description[nn]": "Kontroller MPRIS-tenester",
        "Description[pl]": "Steruje usługami MPRIS",
        "Description[pt]": "Controlar os serviços MPRIS",
        "Description[pt_BR]": "Controle dos serviços MPRIS",
        "Description[ro]": "Controlează servicii MPRIS",
        "Description[ru]": "Управление службами MPRIS",
        "Description[sk]": "Ovládanie služieb MPRIS",
        "Description[sl]": "Nadzoruj storitve MPRIS",
        "Description[sr@ijekavian]": "Контрола МПРИС сервиса",
        "Description[sr@ijekavianlatin]": "Kontrola MPRIS servisa",
        "Description[sr@latin]": "Kontrola MPRIS servisa",
        "Description[sr]": "Контрола МПРИС сервиса",
        "Description[sv]": "Styr MPRIS-tjänster",
        "Description[tr]": "MPRIS hizmetlerini denetleyin",
        "Description[uk]": "Керування службами MPRIS",
        "Description[x-test]": "xxControl MPRIS servicesxx",
        "Description[zh_CN]": "控制 MPRIS 服务",
        "Description[zh_TW]": "控制 MPRIS 服務",
        "EnabledByDefault": true,
        "Icon": "applications-multimedia",
        "License": "GPL",
        "Name": "MprisRemote",
        "Name[ar]": "‏Mpris عن بعد",
        "Name[az]": "Uzaq Mpris",
        "Name[bg]": "MprisRemote",
        "Name[ca@valencia]": "MprisRemote",
        "Name[ca]": "MprisRemote",
        "Name[cs]": "MprisRemote",
        "Name[da]": "MprisRemote",
        "Name[de]": "MprisRemote",
        "Name[el]": "MprisRemote",
        "Name[en_GB]": "MprisRemote",
        "Name[es]": "MprisRemote",
        "Name[et]": "Kaug-Mpris",
        "Name[eu]": "MprisRemote",
        "Name[fi]": "MPRIS-kauko-ohjain",
        "Name[fr]": "Télécommande « MPris »",
        "Name[gl]": "MprisRemote",
        "Name[hu]": "MprisRemote",
        "Name[ia]": "MprisRemote",
        "Name[id]": "Remot MPRIS",
        "Name[ie]": "MprisRemote",
        "Name[is]": "MprisRemote",
        "Name[it]": "MprisRemote",
        "Name[ka]": "MprisRemote",
        "Name[ko]": "MprisRemote",
        "Name[lt]": "Mpris pultas",
        "Name[nl]": "MprisRemote",
        "Name[nn]": "MPRIS-fjernkontroll",
        "Name[pl]": "Obsługa przez MPRIS",
        "Name[pt]": "Comando MPRIS",
        "Name[pt_BR]": "MprisRemote",
        "Name[ro]": "TelecomandăMpris",
        "Name[ru]": "Удалённое управление MPRIS",
        "Name[sk]": "MprisRemote",
        "Name[sl]": "MprisRemote",
        "Name[sr@ijekavian]": "МПРИС даљински",
        "Name[sr@ijekavianlatin]": "MPRIS daljinski",
        "Name[sr@latin]": "MPRIS daljinski",
        "Name[sr]": "МПРИС даљински",
        "Name[sv]": "MPRIS-fjärrkontroll",
        "Name[tr]": "MprisRemote",
        "Name[uk]": "MprisRemote",
        "Name[x-test]": "xxMprisRemotexx",
        "Name[zh_CN]": "远程 Mpris",
        "Name[zh_TW]": "遠端 Mpris"
    },
    "X-KdeConnect-OutgoingPacketType": [
        "kdeconnect.mpris.request"
    ],
    "X-KdeConnect-SupportedPacketType": [
        "kdeconnect.mpris"
    ]
}
